Collapse CCES data to be analyzed in binomial model — build_counts • ccesMRPprep
…
ccc_samp_std <- ccc_samp %>%
  mutate(response = sample(c("For", "Against"), size = n(), replace = TRUE)) %>%
  ccc_std_demographics()

ff <- "yes | trials(n_response) ~ age + gender + educ + (1|cd)"
ccc_samp_out <- build_counts(ccc_samp_std,
                             model_ff = ff)

ccc_samp_out
#> # A tibble: 996 x 6
#>      age gender educ       cd    n_response   yes
#>    <dbl> <fct>  <fct>      <chr>      <int> <int>
#>  1    18 Male   HS or Less FL-25          1     1
#>  2    18 Male   HS or Less NC-09          1     0
#>  3    18 Male   HS or Less PA-11          1     0
#>  4    18 Female HS or Less AL-05          1     1
#>  5    18 Female HS or Less CT-05          1     1
#>  6    18 Female HS or Less IN-05          1     0
#>  7    18 Female HS or Less MD-05          1     1
#>  8    18 Female HS or Less MN-04          1     1
#>  9    18 Female HS or Less OR-02          1     1
#> 10    18 Female HS or Less PA-05          1     0
#> # … with 986 more rows
…
