Sample 2018 Common Content — cc18_samp • ccesMRPprep
…
    Examples

# use questionr::lookfor to search the label and labels
questionr::lookfor(cc18_samp, "Trump")
#>                variable                                 label
#> 91            CC18_308a       Job approval -- President Trump
#> 149           CC18_334C Ideological Placement -- Donald Trump
#> 162            CC18_335                Trump Russia collusion
#> 430 CC18_app_dtrmp_post          President Trump Job Approval

# all data
cc18_samp
#> # A tibble: 1,000 x 526
#>     year case_id commonweight commonpostweight vvweight vvweight_post tookpost
#>    <dbl>   <dbl>        <dbl>            <dbl>    <dbl>         <dbl> <dbl+lb>
#>  1  2018  4.15e8        1.47             1.48    NA            NA      2 [Yes]
#>  2  2018  4.14e8        1.33             1.22     1.51          1.29   2 [Yes]
#>  3  2018  4.12e8        0.641            0.559    0.602         0.594  2 [Yes]
#>  4  2018  4.14e8        1.35             1.19     1.18          1.17   2 [Yes]
#>  5  2018  4.12e8        0.870            0.762    0.842         0.742  2 [Yes]
#>  6  2018  4.12e8        0.949            0.789    1.07          0.983  2 [Yes]
#>  7  2018  4.17e8        0.688            0.585    0.717         0.716  2 [Yes]
#>  8  2018  4.15e8        0.814            0.616   NA            NA      2 [Yes]
#>  9  2018  4.17e8        1.12             0.926    0.991         0.929  2 [Yes]
#> 10  2018  4.13e8        1.05             0.877    0.346         0.372  2 [Yes]
#> # … with 990 more rows, and 519 more variables: CCEStake <dbl+lbl>,
#> #   birthyr <dbl>, gender <dbl+lbl>, educ <dbl+lbl>, race <dbl+lbl>,
#> #   race_other <chr>, hispanic <dbl+lbl>, marstat <dbl+lbl>,
#> #   multrace_1 <dbl+lbl>, multrace_2 <dbl+lbl>, multrace_3 <dbl+lbl>,
#> #   multrace_4 <dbl+lbl>, multrace_5 <dbl+lbl>, multrace_8 <dbl+lbl>,
#> #   multrace_97 <dbl+lbl>, multrace_98 <dbl+lbl>, multrace_99 <dbl+lbl>,
#> #   CC18_354a_1 <dbl+lbl>, CC18_354a_2 <dbl+lbl>, CC18_354a_3 <dbl+lbl>,
#> #   CC18_354a_4 <dbl+lbl>, CC18_354a_5 <dbl+lbl>, CC18_354a_6 <dbl+lbl>,
#> #   CC18_354a_7 <dbl+lbl>, CC18_354a_8 <dbl+lbl>, CC18_354a_9 <dbl+lbl>,
…
