Recode CCES variables so that they merge to ACS variables — ccc_std_demographics • ccesMRPprep
…
A string column called cd that has the congressional district that is of the form
"WY-01", OR a numeric column called dist that has the numeric district number.
cd_up can also be used for the district in the upcoming election.

A <numeric+labelled> column called educ for education, race for race,
age for age, and gender for gender, with values following
the cumulative content.

    Examples

library(dplyr)

 ccc_std_demographics(ccc_samp)
#> age variable modified to bins. Original age variable is now in age_orig. 
#> # A tibble: 1,000 × 22
#>     year case_id state   st    cd       marstat  gender female      age age_orig
#>    <dbl> <chr>   <chr>   <chr> <chr>  <dbl+lbl> <dbl+l>  <dbl> <int+lb>    <dbl>
#>  1  2006 1005058 Michig… MI    MI-04 1 [Marrie… 2 [Fem…      1 3 [35 t…       36
#>  2  2006 1006614 Texas   TX    TX-18 1 [Marrie… 1 [Mal…      0 3 [35 t…       40
#>  3  2006 1009338 Califo… CA    CA-48 1 [Marrie… 1 [Mal…      0 2 [25 t…       32
#>  4  2006 1088898 Florida FL    FL-13 1 [Marrie… 2 [Fem…      1 4 [45 t…       52
#>  5  2006 1090564 Pennsy… PA    PA-19 5 [Single… 2 [Fem…      1 2 [25 t…       25
#>  6  2006 1093132 South … SC    SC-02 1 [Marrie… 2 [Fem…      1 4 [45 t…       48
#>  7  2006 1093573 Utah    UT    UT-03 4 [Widowe… 2 [Fem…      1 5 [65 y…       74
#>  8  2006 1105620 Hawaii  HI    HI-01 5 [Single… 1 [Mal…      0 3 [35 t…       37
#>  9  2006 1116569 Texas   TX    TX-21 5 [Single… 2 [Fem…      1 1 [18 t…       20
#> 10  2006 1117377 Ohio    OH    OH-07 3 [Divorc… 2 [Fem…      1 4 [45 t…       49
#> # … with 990 more rows, and 12 more variables: educ_cces_chr <chr>,
#> #   educ <dbl+lbl>, race_cces_chr <chr>, race <int+lbl>, faminc <dbl+lbl>,
#> #   vv_turnout_gvm <dbl+lbl>, zipcode <chr>, county_fips <chr>,
#> #   hispanic <dbl+lbl>, newsint <dbl+lbl>, voted_pres_16 <dbl+lbl>,
#> #   economy_retro <dbl+lbl>
…
