Congressional District level information - long version — cd_info_long • ccesMRPprep
…
presvotes_DR
The total number of Democrat + Republican votes for President in that CD

    See also

    cd_info for versions with one row per district, and documentation of sources

    Examples

 library(dplyr)

 # get only data for proximate years
 cd_info_long |> filter((elec == lines) | (elec + 2 == lines))
#> # A tibble: 6,960 × 8
#>    lines cd     elec party candidate   pct presvotes_DR presvotes_total
#>    <dbl> <chr> <dbl> <chr> <chr>     <dbl>        <dbl>           <dbl>
#>  1  2008 AK-01  2008 D     obama     0.389       317435          326197
#>  2  2008 AK-01  2008 R     mccain    0.611       317435          326197
#>  3  2008 AL-01  2008 D     obama     0.386       302483          304618
#>  4  2008 AL-01  2008 R     mccain    0.614       302483          304618
#>  5  2008 AL-02  2008 D     obama     0.371       290287          292038
#>  6  2008 AL-02  2008 R     mccain    0.629       290287          292038
#>  7  2008 AL-03  2008 D     obama     0.437       286127          288595
#>  8  2008 AL-03  2008 R     mccain    0.563       286127          288595
#>  9  2008 AL-04  2008 D     obama     0.227       265569          269450
#> 10  2008 AL-04  2008 R     mccain    0.773       265569          269450
#> # ℹ 6,950 more rows
…
# this will show where the districts lines changed between 2022 and 2024
# (same election, same candidate, different map)
cd_info_long |>
 filter(lines %in% c(2022, 2024), elec == 2020, candidate == "biden") |>
 arrange(cd, lines)
#> # A tibble: 870 × 8
#>    lines cd     elec party candidate   pct presvotes_DR presvotes_total
#>    <dbl> <chr> <dbl> <chr> <chr>     <dbl>        <dbl>           <dbl>
#>  1  2022 AK-01  2020 D     biden     0.447      343729          357569 
#>  2  2024 AK-01  2020 D     biden     0.447      343729          357569 
#>  3  2022 AL-01  2020 D     biden     0.357      323682.         327039.
#>  4  2024 AL-01  2020 D     biden     0.245      322370          325715 
#>  5  2022 AL-02  2020 D     biden     0.351      316699.         319817.
#>  6  2024 AL-02  2020 D     biden     0.563      309384          312225 
#>  7  2022 AL-03  2020 D     biden     0.328      313569.         316695.
#>  8  2024 AL-03  2020 D     biden     0.293      318717          322031 
#>  9  2022 AL-04  2020 D     biden     0.188      323091.         326261.
#> 10  2024 AL-04  2020 D     biden     0.186      322594          325713 
#> # ℹ 860 more rows
…
