Obtain CVAP proportions by race — get_acs_cvap • ccesMRPprep
…
    get_acs_cces

    Examples

 get_acs_cvap("white")
#> Getting data from the 2018 1-year ACS
#> The 1-year ACS provides data for geographies with populations of 65,000 and greater.
#> Warning: • You have not set a Census API key. Users without a key are limited to 500
#> queries per day and may experience performance limitations.
#> ℹ For best results, get a Census API key at
#> http://api.census.gov/data/key_signup.html and then supply the key to the
#> `census_api_key()` function to use it throughout your tidycensus session.
#> This warning is displayed once per session.
#> # A tibble: 436 × 6
#>     year cd    cvap_total race  cvap_race cvap_frac
#>    <dbl> <chr>      <dbl> <chr>     <dbl>     <dbl>
#>  1  2018 AK-01     532244 white    349058     0.656
#>  2  2018 AL-01     544464 white    370443     0.680
#>  3  2018 AL-02     516295 white    331192     0.641
#>  4  2018 AL-03     543854 white    381547     0.702
#>  5  2018 AL-04     515701 white    451856     0.876
#>  6  2018 AL-05     551968 white    420181     0.761
#>  7  2018 AL-06     535753 white    423727     0.791
#>  8  2018 AL-07     504177 white    175060     0.347
#>  9  2018 AR-01     548710 white    431129     0.786
#> 10  2018 AR-02     570220 white    413714     0.726
#> # ℹ 426 more rows
…
