Synthetic joint estimation with balancing constraint — synth_bmlogit • ccesMRPprep
…
    See also

    synth_mlogit()

    Examples

library(dplyr)
# can take a few minutes if fix_by_area = TRUE (the default)
educ_target <- count(acs_educ_NY, cd, educ, wt = count, name = "count")

educ_target

#> # A tibble: 108 x 3
#>    cd    educ          count
#>    <chr> <fct>         <dbl>
#>  1 NY-01 HS or Less   202298
#>  2 NY-01 Some College 169556
#>  3 NY-01 4-Year       111561
#>  4 NY-01 Post-Grad     83255
#>  5 NY-02 HS or Less   231614
#>  6 NY-02 Some College 157090
#>  7 NY-02 4-Year        99763
#>  8 NY-02 Post-Grad     71094
#>  9 NY-03 HS or Less   138929
#> 10 NY-03 Some College 127003
#> # … with 98 more rows
acs_race_NY

#> # A tibble: 4,320 x 6
#>     year cd    female race  age               count
#>    <dbl> <chr>  <int> <fct> <fct>             <dbl>
#>  1  2018 NY-01      0 Black 18 to 24 years      826
#>  2  2018 NY-01      0 Black 18 to 24 years     1828
#>  3  2018 NY-01      0 Black 25 to 34 years     1127
#>  4  2018 NY-01      0 Black 25 to 34 years     1298
#>  5  2018 NY-01      0 Black 35 to 44 years     2696
#>  6  2018 NY-01      0 Black 45 to 64 years     3779
#>  7  2018 NY-01      0 Black 45 to 64 years     2153
#>  8  2018 NY-01      0 Black 65 years and over   781
#>  9  2018 NY-01      0 Black 65 years and over   624
#> 10  2018 NY-01      0 Black 65 years and over   133
#> # … with 4,310 more rows

pop_syn <- synth_bmlogit(educ ~ race + age + female,
                         microdata = cc18_NY,
                         fix_to = educ_target,
                         poptable = acs_race_NY,
                         area_var = "cd")
pop_syn

#> # A tibble: 6,480 x 9
#>    cd    race  age           female    prX educ        prZ_givenX    prXZ  count
#>    <chr> <fct> <fct>          <int>  <dbl> <fct>            <dbl>   <dbl>  <dbl>
#>  1 NY-01 White 18 to 24 yea…      0 0.0358 HS or Less      0.294  1.05e-2  6060.
#>  2 NY-01 White 18 to 24 yea…      0 0.0358 Some Colle…     0.504  1.80e-2 10378.
#>  3 NY-01 White 18 to 24 yea…      0 0.0358 4-Year          0.173  6.18e-3  3559.
#>  4 NY-01 White 18 to 24 yea…      0 0.0358 Post-Grad       0.0295 1.05e-3   608.
#>  5 NY-01 White 18 to 24 yea…      1 0.0355 HS or Less      0.373  1.33e-2  7646.
#>  6 NY-01 White 18 to 24 yea…      1 0.0355 Some Colle…     0.459  1.63e-2  9397.
#>  7 NY-01 White 18 to 24 yea…      1 0.0355 4-Year          0.147  5.22e-3  3011.
#>  8 NY-01 White 18 to 24 yea…      1 0.0355 Post-Grad       0.0209 7.42e-4   428.
#>  9 NY-01 White 25 to 34 yea…      0 0.0476 HS or Less      0.180  8.58e-3  4946.
#> 10 NY-01 White 25 to 34 yea…      0 0.0476 Some Colle…     0.195  9.30e-3  5360.
#> # … with 6,470 more rows
…
