Deriving Variables • ccesMRPprep
…
      Source: vignettes/derived.Rmd
      derived.Rmd

All survey questions are inherently discrete so the analyst must decide how to derive (or operationalize) that into a numeric indicator. This decision choice that rarely gets the limelight is a difficult operation to encode in a generic way.

Original Encodings (haven_labelled)

factor is a R variable class in which value comprises a value has a level and a label (See Advanced R for a brief technical overview.). Both of these are necessary to store in survey design because the order in which the values were presented and the label matters. Even though the levels can be thought of as fundamentally as integers, the transformation from R factors to integers is actually cumbersome. ?base::factor recommends as.numeric(levels(f))[f] where f is a factor vector.

haven_labelled is a separate R class that was defined in the haven package, a part of tidyverse that is designed to read Stata and SPSS files. Stata and SPSS have their own analogs to factors, but in Stata, these variables are literally integers/doubles with a “labels” attribute. This is a named vector where the values are the numbers and the labels are the label equivalent of factors (corresponding to Stata’s label list [lblname]). haven_labelled is a class that preserves this information (See ?haven::labelled help page or the vignette from the labelled package for more detail). For example, look at any of the variables in the CCES 2018 sample which contains a lbl tag:

gov_approval_lbl <- select(cc18_samp, case_id, CC18_308d)
gov_approval_lbl
#> # A tibble: 1,000 x 2
#>      case_id               CC18_308d
#>        <dbl>               <dbl+lbl>
#>  1 415395741 4 [Strongly disapprove]
#>  2 414164923 4 [Strongly disapprove]
#>  3 412379892 2 [Somewhat approve]   
#>  4 414203529 3 [Somewhat disapprove]
#>  5 412148048 1 [Strongly approve]   
#>  6 412329835 2 [Somewhat approve]   
#>  7 417352072 4 [Strongly disapprove]
#>  8 414614677 1 [Strongly approve]   
#>  9 416797006 1 [Strongly approve]   
#> 10 412962561 1 [Strongly approve]   
#> # … with 990 more rows

Recent versions of haven (>= 2.1.0) will display the labels in square brackets if the dataset is a tibble, but we can see that the values are basically doubles. If we had used factors, these numerical values would be obscured, though the levels and labels will be kept.

gov_approval_fct <- transmute(cc18_samp, case_id, CC18_308d = as_factor(CC18_308d))
gov_approval_fct
#> # A tibble: 1,000 x 2
#>      case_id CC18_308d          
#>        <dbl> <fct>              
#>  1 415395741 Strongly disapprove
#>  2 414164923 Strongly disapprove
#>  3 412379892 Somewhat approve   
#>  4 414203529 Somewhat disapprove
#>  5 412148048 Strongly approve   
#>  6 412329835 Somewhat approve   
#>  7 417352072 Strongly disapprove
#>  8 414614677 Strongly approve   
#>  9 416797006 Strongly approve   
#> 10 412962561 Strongly approve   
#> # … with 990 more rows
…
All three types can be derived by the basic atomic operator:

outcome = lbl_var %in% c(v1, v2, v3, ...)

where outcome is the derived variable, lbl_var the data vector of class haven_labelled, and c(v1, v2, v3, ...) is a vector of one or more in the data vector that that we consider a success.

For this project we only consider binomial models, which is why this is sufficient. Survey data is almost never continuous, and running multinomial models in MRP is still exceedingly uncommon.

1. Yes-No variables - use yesno_to_binary

This is the simplest case because there are only two options and it is almost always clear which of the two is naturally corresponds to a “success” instead of a “failure” in a Bernoulli random variable. That means we currently _only- use yesno_to_binary() for the derivation. For example, CC18_322C is a question asking for people’s support of a measure to withdraw federal funding for so-called “Sanctuary Cities”:

cc18_samp %>%
  select(case_id, CC18_322c)
#> # A tibble: 1,000 x 2
#>      case_id   CC18_322c
#>        <dbl>   <dbl+lbl>
#>  1 415395741 2 [Oppose] 
#>  2 414164923 1 [Support]
#>  3 412379892 2 [Oppose] 
#>  4 414203529 1 [Support]
#>  5 412148048 2 [Oppose] 
#>  6 412329835 2 [Oppose] 
#>  7 417352072 2 [Oppose] 
#>  8 414614677 2 [Oppose] 
#>  9 416797006 1 [Support]
#> 10 412962561 1 [Support]
#> # … with 990 more rows
…
