Workflow Overview • ccesMRPprep
…
library(ccesMRPprep)
library(tidyverse)
library(haven)

Step 1. Downloading CCES data

All CCES data can be downloaded directly from dataverse, using the development version of the dataverse R package. The function get_cces_dv() will make this quick and simple - you only need to specify the name of the dataset, given in ?cces_dv_ids.

# may take about 30 seconds to download
ccc <- get_cces_dv("cumulative")

We will use a built-in sample of 1,000 observations for illustration (see ccc_samp()).

ccc_samp
#> # A tibble: 1,000 x 18
#>     year case_id state st    cd    zipcode county_fips  gender   age    race
#>    <int>   <int> <chr> <chr> <chr> <chr>   <chr>       <int+l> <int> <int+l>
#>  1  2006  439254 Neva… NV    NV-2  89703   32510       2 [Fem…    20 1 [Whi…
#>  2  2006  440689 Cali… CA    CA-2  96067   06093       2 [Fem…    71 1 [Whi…
#>  3  2006  445845 Colo… CO    CO-5  80922   08041       2 [Fem…    39 1 [Whi…
#>  4  2006  452572 Minn… MN    MN-5  55428   27053       1 [Mal…    74 1 [Whi…
#>  5  2006  498451 Iowa  IA    IA-2  50060   19185       2 [Fem…    53 1 [Whi…
#>  6  2006  502543 Tenn… TN    TN-5  37206   47037       2 [Fem…    50 1 [Whi…
#>  7  2006  523050 West… WV    WV-2  25312   54039       1 [Mal…    55 1 [Whi…
#>  8  2006  523861 Illi… IL    IL-3  60629   17031       2 [Fem…    51 1 [Whi…
#>  9  2006  532881 Minn… MN    MN-7  55396   27143       1 [Mal…    44 1 [Whi…
#> 10  2006  553375 Ohio  OH    OH-11 44112   39035       2 [Fem…    53 1 [Whi…
#> # … with 990 more rows, and 8 more variables: hispanic <int+lbl>,
#> #   educ <int+lbl>, faminc <fct>, marstat <int+lbl>, newsint <int+lbl>,
#> #   vv_turnout_gvm <fct>, voted_pres_16 <fct>, economy_retro <int+lbl>
…
Step 4. Collapsing the CCES data

For speed, we collapse the individual-level data where each outcome is binary to a count dataset where each row is a cell (with a trial and success value). This form also makes drawing posteriors much easier in the next step. We use build_counts() for this, which takes a individual-level dataset (built from ccc_std_demographics(), or further passed through cces_join_slim() for all relevant outcomes and predictors).

# fake outcome data - must be called "response"
set.seed(02138)
ccc_samp_std <- ccc_samp %>%
   mutate(response = sample(c("For", "Against"), size = n(), replace = TRUE)) %>%
   ccc_std_demographics()

ccc_samp_out <- build_counts(ccc_samp_std,
                             "yes | trials(n_response) ~ age + gender + educ")

ccc_samp_out
#> # A tibble: 400 x 5
#>      age gender educ         n_response   yes
#>    <int> <fct>  <fct>             <int> <int>
#>  1    18 Male   HS or Less            3     0
#>  2    18 Female HS or Less            7     5
#>  3    18 Female Some College          1     0
#>  4    19 Male   HS or Less            1     1
#>  5    19 Female HS or Less            2     1
#>  6    19 Female Some College          2     1
#>  7    20 Male   HS or Less            1     0
#>  8    20 Male   Some College          5     3
#>  9    20 Female HS or Less            3     2
#> 10    20 Female Some College          5     4
#> # … with 390 more rows
…
